<svg xmlns="http://www.w3.org/2000/svg" width="92.41" height="66.007" viewBox="0 0 92.41 66.007">
  <path id="quote02" d="M11.6,73.007H31.4L44.6,46.6V7H5V46.6H24.8Zm52.806,0h19.8l13.2-26.4V7h-39.6V46.6h19.8Z" transform="translate(-5 -7)" fill="rgba(143,74,240,0.36)"/>
</svg>
