<svg xmlns="http://www.w3.org/2000/svg" width="60.401" height="51.109" viewBox="0 0 60.401 51.109">
  <g id="right" transform="translate(60.401 51.109) rotate(180)">
    <path id="Path_1" data-name="Path 1" d="M20.908,59.776H12.777a3.47,3.47,0,0,1-3.485-3.485V55.13a8.953,8.953,0,0,1,2.723-6.57,8.955,8.955,0,0,1,6.57-2.722h2.323a2.355,2.355,0,0,0,2.323-2.323V38.868a2.355,2.355,0,0,0-2.323-2.323H18.585a18.111,18.111,0,0,0-7.205,1.47,18.409,18.409,0,0,0-9.909,9.91A18.1,18.1,0,0,0,0,55.13V80.684a6.721,6.721,0,0,0,2.032,4.937,6.723,6.723,0,0,0,4.937,2.032H20.909a6.939,6.939,0,0,0,6.969-6.97V66.746a6.941,6.941,0,0,0-6.97-6.969Z" transform="translate(0 -36.545)" fill="#eee"/>
    <path id="Path_2" data-name="Path 2" d="M281.665,61.809a6.721,6.721,0,0,0-4.937-2.032H268.6a3.47,3.47,0,0,1-3.484-3.485V55.13a9.294,9.294,0,0,1,9.293-9.292h2.322a2.356,2.356,0,0,0,2.324-2.323V38.868a2.356,2.356,0,0,0-2.324-2.323h-2.322a18.116,18.116,0,0,0-7.207,1.47,18.414,18.414,0,0,0-9.909,9.91,18.108,18.108,0,0,0-1.471,7.205V80.684a6.94,6.94,0,0,0,6.969,6.97h13.939a6.939,6.939,0,0,0,6.969-6.97V66.746A6.721,6.721,0,0,0,281.665,61.809Z" transform="translate(-223.295 -36.545)" fill="#eee"/>
  </g>
</svg>
