<?xml version="1.0" encoding="utf-8"?>
<!-- Generator: Adobe Illustrator 16.0.0, SVG Export Plug-In . SVG Version: 6.00 Build 0)  -->
<!DOCTYPE svg PUBLIC "-//W3C//DTD SVG 1.1//EN" "http://www.w3.org/Graphics/SVG/1.1/DTD/svg11.dtd">
<svg version="1.1" id="Layer_1" xmlns="http://www.w3.org/2000/svg" xmlns:xlink="http://www.w3.org/1999/xlink" x="0px" y="0px"
	 width="153.25px" height="153.141px" viewBox="56.95 0 153.25 153.141" enable-background="new 56.95 0 153.25 153.141"
	 xml:space="preserve">
<g>
	<g>
		<g>
			<linearGradient id="SVGID_1_" gradientUnits="userSpaceOnUse" x1="106.3687" y1="66.3611" x2="147.2061" y2="66.3611">
				<stop  offset="0" style="stop-color:#4928DD"/>
				<stop  offset="0.6847" style="stop-color:#842AFF"/>
				<stop  offset="1" style="stop-color:#7A20F3"/>
			</linearGradient>
			<path fill="url(#SVGID_1_)" d="M126.788,45.942c-11.23,0-20.419,9.188-20.419,20.419s9.188,20.419,20.419,20.419
				c11.231,0,20.418-9.188,20.418-20.419S138.019,45.942,126.788,45.942z M126.788,81.675c-8.423,0-15.314-6.891-15.314-15.313
				s6.891-15.314,15.314-15.314c8.422,0,15.314,6.892,15.314,15.314S135.21,81.675,126.788,81.675z"/>
		</g>
	</g>
	<g>
		<g>
			<linearGradient id="SVGID_2_" gradientUnits="userSpaceOnUse" x1="91.0552" y1="76.5696" x2="177.835" y2="76.5696">
				<stop  offset="0" style="stop-color:#4928DD"/>
				<stop  offset="0.6847" style="stop-color:#842AFF"/>
				<stop  offset="1" style="stop-color:#7A20F3"/>
			</linearGradient>
			<path fill="url(#SVGID_2_)" d="M167.624,0h-66.36c-5.615,0-10.209,4.595-10.209,10.209V142.93
				c0,5.615,4.594,10.209,10.209,10.209h66.361c5.615,0,10.21-4.594,10.21-10.209V10.209C177.835,4.594,173.24,0,167.624,0z
				 M172.729,142.93c0,2.809-2.297,5.105-5.105,5.105h-66.36c-2.808,0-5.105-2.297-5.105-5.105V10.209
				c0-2.808,2.297-5.104,5.105-5.104h66.361c2.808,0,5.104,2.297,5.104,5.104V142.93L172.729,142.93z"/>
		</g>
	</g>
	<g>
		<g>
			<linearGradient id="SVGID_3_" gradientUnits="userSpaceOnUse" x1="91.0547" y1="74.0178" x2="177.834" y2="74.0178">
				<stop  offset="0" style="stop-color:#4928DD"/>
				<stop  offset="0.6847" style="stop-color:#842AFF"/>
				<stop  offset="1" style="stop-color:#7A20F3"/>
			</linearGradient>
			<path fill="url(#SVGID_3_)" d="M91.055,15.314v117.407h86.779V15.314H91.055z M172.729,127.617h-76.57V20.419h76.57V127.617z"/>
		</g>
	</g>
	<g>
		<g>
			<linearGradient id="SVGID_4_" gradientUnits="userSpaceOnUse" x1="129.3398" y1="10.2092" x2="147.2061" y2="10.2092">
				<stop  offset="0" style="stop-color:#4928DD"/>
				<stop  offset="0.6847" style="stop-color:#842AFF"/>
				<stop  offset="1" style="stop-color:#7A20F3"/>
			</linearGradient>
			<path fill="url(#SVGID_4_)" d="M144.653,7.657h-12.761c-1.532,0-2.552,1.021-2.552,2.552c0,1.532,1.021,2.553,2.552,2.553h12.761
				c1.531,0,2.553-1.021,2.553-2.553C147.206,8.677,146.185,7.657,144.653,7.657z"/>
		</g>
	</g>
	<g>
		<g>
			<linearGradient id="SVGID_5_" gradientUnits="userSpaceOnUse" x1="119.1309" y1="10.2092" x2="126.7876" y2="10.2092">
				<stop  offset="0" style="stop-color:#4928DD"/>
				<stop  offset="0.6847" style="stop-color:#842AFF"/>
				<stop  offset="1" style="stop-color:#7A20F3"/>
			</linearGradient>
			<path fill="url(#SVGID_5_)" d="M124.235,7.657h-2.552c-1.532,0-2.552,1.021-2.552,2.552c0,1.532,1.021,2.553,2.552,2.553h2.552
				c1.531,0,2.552-1.021,2.552-2.553C126.788,8.677,125.767,7.657,124.235,7.657z"/>
		</g>
	</g>
	<g>
		<g>
			<linearGradient id="SVGID_6_" gradientUnits="userSpaceOnUse" x1="88.5024" y1="26.7996" x2="93.6069" y2="26.7996">
				<stop  offset="0" style="stop-color:#4928DD"/>
				<stop  offset="0.6847" style="stop-color:#842AFF"/>
				<stop  offset="1" style="stop-color:#7A20F3"/>
			</linearGradient>
			<path fill="url(#SVGID_6_)" d="M91.055,22.971c-1.531,0-2.552,1.021-2.552,2.552v2.553c0,1.531,1.021,2.552,2.552,2.552
				s2.552-1.021,2.552-2.552v-2.553C93.607,23.992,92.586,22.971,91.055,22.971z"/>
		</g>
	</g>
	<g>
		<g>
			<linearGradient id="SVGID_7_" gradientUnits="userSpaceOnUse" x1="88.5024" y1="37.009" x2="93.6069" y2="37.009">
				<stop  offset="0" style="stop-color:#4928DD"/>
				<stop  offset="0.6847" style="stop-color:#842AFF"/>
				<stop  offset="1" style="stop-color:#7A20F3"/>
			</linearGradient>
			<path fill="url(#SVGID_7_)" d="M91.055,33.18c-1.531,0-2.552,1.021-2.552,2.552v2.553c0,1.531,1.021,2.553,2.552,2.553
				s2.552-1.021,2.552-2.553v-2.552C93.607,34.201,92.586,33.18,91.055,33.18z"/>
		</g>
	</g>
	<g>
		<g>
			<linearGradient id="SVGID_8_" gradientUnits="userSpaceOnUse" x1="88.5024" y1="47.218" x2="93.6069" y2="47.218">
				<stop  offset="0" style="stop-color:#4928DD"/>
				<stop  offset="0.6847" style="stop-color:#842AFF"/>
				<stop  offset="1" style="stop-color:#7A20F3"/>
			</linearGradient>
			<path fill="url(#SVGID_8_)" d="M91.055,43.389c-1.531,0-2.552,1.021-2.552,2.553v2.552c0,1.532,1.021,2.553,2.552,2.553
				s2.552-1.021,2.552-2.553v-2.552C93.607,44.411,92.586,43.389,91.055,43.389z"/>
		</g>
	</g>
	<g>
		<g>
			<linearGradient id="SVGID_9_" gradientUnits="userSpaceOnUse" x1="124.2354" y1="140.3787" x2="144.6533" y2="140.3787">
				<stop  offset="0" style="stop-color:#4928DD"/>
				<stop  offset="0.6847" style="stop-color:#842AFF"/>
				<stop  offset="1" style="stop-color:#7A20F3"/>
			</linearGradient>
			<path fill="url(#SVGID_9_)" d="M134.444,130.169c-5.615,0-10.209,4.595-10.209,10.21c0,5.614,4.594,10.209,10.209,10.209
				c5.615,0,10.209-4.595,10.209-10.209C144.653,134.763,140.06,130.169,134.444,130.169z M134.444,145.483
				c-2.808,0-5.104-2.297-5.104-5.104s2.297-5.105,5.104-5.105s5.105,2.298,5.105,5.105S137.252,145.483,134.444,145.483z"/>
		</g>
	</g>
	<g>
		<g>
			<linearGradient id="SVGID_10_" gradientUnits="userSpaceOnUse" x1="136.9971" y1="89.3318" x2="162.5205" y2="89.3318">
				<stop  offset="0" style="stop-color:#4928DD"/>
				<stop  offset="0.6847" style="stop-color:#842AFF"/>
				<stop  offset="1" style="stop-color:#7A20F3"/>
			</linearGradient>
			<path fill="url(#SVGID_10_)" d="M161.755,97.755l-20.419-20.419c-1.021-1.021-2.552-1.021-3.573,0s-1.021,2.553,0,3.573
				l20.418,20.419c1.021,1.021,2.553,1.021,3.574,0C162.775,100.306,162.775,98.775,161.755,97.755z"/>
		</g>
	</g>
	<g>
		<g>
			<linearGradient id="SVGID_11_" gradientUnits="userSpaceOnUse" x1="57.9385" y1="12.7615" x2="83.334" y2="12.7615">
				<stop  offset="0" style="stop-color:#4928DD"/>
				<stop  offset="0.6847" style="stop-color:#842AFF"/>
				<stop  offset="1" style="stop-color:#7A20F3"/>
			</linearGradient>
			<path fill="url(#SVGID_11_)" d="M80.845,10.209c-4.339,0-7.657-3.317-7.657-7.656c0-3.318-5.105-3.318-5.105,0
				c0,4.339-3.318,7.656-7.657,7.656c-3.318,0-3.318,5.105,0,5.105c4.339,0,7.657,3.317,7.657,7.657c0,3.317,5.105,3.317,5.105,0
				c0-4.34,3.318-7.657,7.657-7.657C84.164,15.314,84.164,10.209,80.845,10.209z M70.636,15.314
				c-0.766-1.021-1.531-1.787-2.552-2.553c1.021-0.766,1.787-1.531,2.552-2.552c0.766,1.021,1.531,1.786,2.552,2.552
				C72.167,13.527,71.402,14.293,70.636,15.314z"/>
		</g>
	</g>
	<g>
		<g>
			<linearGradient id="SVGID_12_" gradientUnits="userSpaceOnUse" x1="193.1484" y1="43.3899" x2="198.2529" y2="43.3899">
				<stop  offset="0" style="stop-color:#4928DD"/>
				<stop  offset="0.6847" style="stop-color:#842AFF"/>
				<stop  offset="1" style="stop-color:#7A20F3"/>
			</linearGradient>
			<path fill="url(#SVGID_12_)" d="M195.7,35.733c-1.531,0-2.552,1.021-2.552,2.552v10.209c0,1.532,1.021,2.553,2.552,2.553
				s2.553-1.021,2.553-2.553V38.285C198.253,36.754,197.231,35.733,195.7,35.733z"/>
		</g>
	</g>
	<g>
		<g>
			<linearGradient id="SVGID_13_" gradientUnits="userSpaceOnUse" x1="188.0439" y1="43.3899" x2="203.3574" y2="43.3899">
				<stop  offset="0" style="stop-color:#4928DD"/>
				<stop  offset="0.6847" style="stop-color:#842AFF"/>
				<stop  offset="1" style="stop-color:#7A20F3"/>
			</linearGradient>
			<path fill="url(#SVGID_13_)" d="M200.806,40.838h-10.209c-1.532,0-2.553,1.021-2.553,2.552s1.021,2.553,2.553,2.553h10.209
				c1.531,0,2.552-1.021,2.552-2.553S202.337,40.838,200.806,40.838z"/>
		</g>
	</g>
	<g>
		<g>
			<linearGradient id="SVGID_14_" gradientUnits="userSpaceOnUse" x1="73.1885" y1="112.3025" x2="78.293" y2="112.3025">
				<stop  offset="0" style="stop-color:#4928DD"/>
				<stop  offset="0.6847" style="stop-color:#842AFF"/>
				<stop  offset="1" style="stop-color:#7A20F3"/>
			</linearGradient>
			<path fill="url(#SVGID_14_)" d="M75.741,109.751c-1.531,0-2.552,1.021-2.552,2.552s1.021,2.553,2.552,2.553
				s2.552-1.021,2.552-2.553C78.293,110.771,77.272,109.751,75.741,109.751z"/>
		</g>
	</g>
	<g>
		<g>
			<linearGradient id="SVGID_15_" gradientUnits="userSpaceOnUse" x1="60.4268" y1="66.3606" x2="65.5313" y2="66.3606">
				<stop  offset="0" style="stop-color:#4928DD"/>
				<stop  offset="0.6847" style="stop-color:#842AFF"/>
				<stop  offset="1" style="stop-color:#7A20F3"/>
			</linearGradient>
			<path fill="url(#SVGID_15_)" d="M62.979,63.808c-1.531,0-2.552,1.021-2.552,2.552c0,1.532,1.021,2.553,2.552,2.553
				c1.532,0,2.552-1.021,2.552-2.553C65.531,64.829,64.511,63.808,62.979,63.808z"/>
		</g>
	</g>
	<g>
		<g>
			<linearGradient id="SVGID_16_" gradientUnits="userSpaceOnUse" x1="185.4912" y1="91.8845" x2="190.5957" y2="91.8845">
				<stop  offset="0" style="stop-color:#4928DD"/>
				<stop  offset="0.6847" style="stop-color:#842AFF"/>
				<stop  offset="1" style="stop-color:#7A20F3"/>
			</linearGradient>
			<path fill="url(#SVGID_16_)" d="M188.044,89.332c-1.531,0-2.553,1.021-2.553,2.553c0,1.531,1.021,2.552,2.553,2.552
				s2.552-1.021,2.552-2.552C190.596,90.352,189.575,89.332,188.044,89.332z"/>
		</g>
	</g>
	<g>
		<g>
			<linearGradient id="SVGID_17_" gradientUnits="userSpaceOnUse" x1="203.3574" y1="145.4822" x2="208.4619" y2="145.4822">
				<stop  offset="0" style="stop-color:#4928DD"/>
				<stop  offset="0.6847" style="stop-color:#842AFF"/>
				<stop  offset="1" style="stop-color:#7A20F3"/>
			</linearGradient>
			<path fill="url(#SVGID_17_)" d="M205.909,142.93c-1.531,0-2.552,1.021-2.552,2.553s1.021,2.552,2.552,2.552
				s2.553-1.021,2.553-2.552S207.441,142.93,205.909,142.93z"/>
		</g>
	</g>
</g>
<g display="none">
	<g display="inline">
		<g>
			<linearGradient id="SVGID_18_" gradientUnits="userSpaceOnUse" x1="113.4795" y1="135.2732" x2="128.793" y2="135.2732">
				<stop  offset="0" style="stop-color:#4928DD"/>
				<stop  offset="0.7143" style="stop-color:#842AFF"/>
				<stop  offset="1" style="stop-color:#7A20F3"/>
			</linearGradient>
			<path fill="url(#SVGID_18_)" d="M118.793,142.93h4.686c2.936,0,5.313-2.378,5.313-5.313v-4.687c0-2.936-2.378-5.313-5.313-5.313
				h-4.686c-2.936,0-5.314,2.378-5.314,5.313v4.687C113.479,140.552,115.857,142.93,118.793,142.93z M118.584,132.93
				c0-0.116,0.092-0.209,0.209-0.209h4.686c0.117,0,0.209,0.093,0.209,0.209v4.687c0,0.116-0.093,0.209-0.209,0.209h-4.686
				c-0.117,0-0.209-0.093-0.209-0.209V132.93L118.584,132.93z"/>
			<linearGradient id="SVGID_19_" gradientUnits="userSpaceOnUse" x1="77.7466" y1="76.5706" x2="195.1533" y2="76.5706">
				<stop  offset="0" style="stop-color:#4928DD"/>
				<stop  offset="0.7143" style="stop-color:#842AFF"/>
				<stop  offset="1" style="stop-color:#7A20F3"/>
			</linearGradient>
			<path fill="url(#SVGID_19_)" d="M192.602,35.732c-8.839,0-16.108-2.246-21.944-5.979c-2.023-1.294-3.721-2.676-5.101-4.047
				c-0.431-0.427-0.771-0.794-1.03-1.089V11.673c0-6.445-5.228-11.672-11.675-11.672H89.421c-6.447,0-11.674,5.227-11.674,11.672
				V119.96v23.067v0.001c0,5.586,4.527,10.112,10.112,10.112h66.554c5.586,0,10.113-4.526,10.113-10.112v-0.001V119.96v-10.912
				c4.575-1.615,8.817-4.036,12.729-7.146c11.36-9.031,17.898-23.206,17.898-38.238V38.285
				C195.153,36.876,194.011,35.732,192.602,35.732z M159.421,143.028c0,2.766-2.241,5.008-5.008,5.008H87.859
				c-2.766,0-5.008-2.242-5.008-5.008v-17.964h76.57V143.028z M82.851,119.96V20.419h17.866c1.41,0,2.552-1.143,2.552-2.553
				c0-1.409-1.143-2.552-2.552-2.552H82.851v-3.642c0-3.626,2.941-6.566,6.57-6.566h63.431c3.628,0,6.569,2.94,6.569,6.566v12.945
				c-0.26,0.295-0.601,0.662-1.03,1.089c-1.38,1.371-3.077,2.753-5.101,4.047c-5.836,3.732-13.106,5.979-21.945,5.979
				c-1.41,0-2.552,1.143-2.552,2.553v0.001v25.377v0.001c0,15.032,6.539,29.207,17.899,38.238c0.268,0.214,0.538,0.423,0.81,0.629
				c0.052,0.039,0.104,0.077,0.155,0.116c0.211,0.159,0.422,0.317,0.635,0.473c0.095,0.069,0.189,0.137,0.284,0.205
				c0.173,0.123,0.345,0.246,0.518,0.367c0.11,0.078,0.222,0.154,0.333,0.23c0.16,0.109,0.32,0.219,0.481,0.326
				c0.118,0.078,0.235,0.156,0.353,0.233c0.16,0.104,0.319,0.207,0.479,0.31c0.118,0.075,0.235,0.15,0.354,0.225
				c0.167,0.104,0.335,0.207,0.504,0.31c0.111,0.066,0.221,0.135,0.332,0.201c0.199,0.118,0.398,0.233,0.6,0.348
				c0.081,0.048,0.162,0.096,0.244,0.142c0.285,0.161,0.57,0.318,0.858,0.473c0.045,0.023,0.09,0.047,0.135,0.07
				c0.245,0.13,0.491,0.259,0.737,0.384c0.085,0.043,0.17,0.084,0.256,0.126c0.209,0.104,0.418,0.208,0.629,0.309
				c0.095,0.045,0.19,0.09,0.286,0.134c0.204,0.096,0.408,0.19,0.614,0.282c0.096,0.043,0.191,0.085,0.287,0.128
				c0.21,0.092,0.421,0.183,0.633,0.271c0.09,0.038,0.18,0.076,0.271,0.113c0.227,0.093,0.453,0.184,0.682,0.272
				c0.076,0.03,0.15,0.06,0.227,0.089c0.265,0.102,0.531,0.2,0.798,0.297c0.039,0.014,0.079,0.028,0.118,0.043
				c0.039,0.014,0.077,0.029,0.116,0.043v10.909H82.851L82.851,119.96z M190.05,63.663c0,13.508-5.855,26.201-15.971,34.243
				c-3.729,2.964-7.762,5.209-12.105,6.618c-0.008-0.003-0.016-0.005-0.023-0.008c-0.195-0.063-0.391-0.13-0.585-0.197
				c-0.083-0.029-0.167-0.057-0.249-0.086c-0.18-0.063-0.357-0.129-0.536-0.195c-0.097-0.036-0.195-0.072-0.292-0.108
				c-0.168-0.064-0.334-0.131-0.5-0.196c-0.107-0.043-0.215-0.085-0.321-0.129c-0.158-0.064-0.315-0.132-0.472-0.198
				c-0.115-0.05-0.23-0.099-0.344-0.148c-0.148-0.065-0.297-0.132-0.443-0.199c-0.123-0.056-0.245-0.111-0.367-0.169
				c-0.14-0.065-0.279-0.132-0.419-0.199c-0.128-0.063-0.257-0.125-0.384-0.188c-0.133-0.065-0.265-0.133-0.396-0.2
				c-0.134-0.069-0.268-0.139-0.4-0.209c-0.125-0.066-0.251-0.133-0.377-0.201c-0.138-0.075-0.275-0.151-0.413-0.229
				c-0.12-0.066-0.239-0.133-0.357-0.201c-0.143-0.081-0.284-0.164-0.426-0.248c-0.113-0.067-0.228-0.134-0.341-0.202
				c-0.145-0.088-0.289-0.178-0.434-0.267c-0.109-0.067-0.219-0.135-0.327-0.204c-0.147-0.093-0.293-0.188-0.438-0.283
				c-0.105-0.069-0.212-0.137-0.316-0.207c-0.146-0.097-0.289-0.195-0.434-0.294c-0.106-0.072-0.213-0.145-0.318-0.218
				c-0.136-0.095-0.27-0.191-0.404-0.288c-0.114-0.081-0.229-0.161-0.342-0.244c-0.11-0.08-0.22-0.163-0.329-0.244
				c-0.138-0.103-0.274-0.204-0.411-0.308c-0.013-0.01-0.025-0.02-0.037-0.029c-0.224-0.171-0.446-0.344-0.668-0.52
				c-10.115-8.042-15.971-20.735-15.971-34.243V40.78c8.719-0.4,16.089-2.853,22.143-6.725c0.302-0.193,0.594-0.387,0.88-0.58
				c0.042-0.028,0.083-0.056,0.124-0.084c0.238-0.162,0.471-0.324,0.698-0.485c0.055-0.039,0.108-0.078,0.163-0.117
				c0.225-0.161,0.443-0.321,0.656-0.481c0.037-0.027,0.075-0.056,0.111-0.083c0.506-0.382,0.98-0.761,1.424-1.133
				c0.029-0.023,0.056-0.047,0.084-0.071c0.188-0.158,0.371-0.316,0.548-0.473c0.04-0.035,0.08-0.071,0.12-0.106
				c0.172-0.153,0.338-0.305,0.499-0.455c0.027-0.025,0.056-0.052,0.083-0.077c0.188-0.176,0.37-0.351,0.543-0.522
				c1.449,1.438,3.419,3.061,5.933,4.668c6.054,3.872,13.425,6.324,22.143,6.726L190.05,63.663L190.05,63.663z"/>
		</g>
	</g>
</g>
</svg>
